{
	"prefix": "/api/",
	"GET": {
		"user/current": {
			"resource" : "User",
			"method" : "getCurrentUser"
		}
	},
	"POST": {
		"auth/login" : {
			"resource" : "Authorize",
			"method" : "logIn"
		}
	},
	"DELETE": {
		"auth/logout" : {
			"resource" : "Authorize",
			"method" : "logOut"
		}
	}
}